<?xml version="1.0" encoding="UTF-8" standalone="no"?>
<svg
   inkscape:version="1.1.2 (0a00cf5339, 2022-02-04)"
   sodipodi:docname="diamond-square-symbolic.svg"
   width="64"
   height="64"
   version="1.1"
   id="svg24"
   xmlns:inkscape="http://www.inkscape.org/namespaces/inkscape"
   xmlns:sodipodi="http://sodipodi.sourceforge.net/DTD/sodipodi-0.dtd"
   xmlns="http://www.w3.org/2000/svg"
   xmlns:svg="http://www.w3.org/2000/svg"
   xmlns:rdf="http://www.w3.org/1999/02/22-rdf-syntax-ns#"
   xmlns:cc="http://creativecommons.org/ns#"
   xmlns:dc="http://purl.org/dc/elements/1.1/">
  <sodipodi:namedview
     inkscape:document-rotation="0"
     inkscape:current-layer="svg24"
     inkscape:window-maximized="1"
     inkscape:window-y="28"
     inkscape:window-x="0"
     inkscape:cy="32"
     inkscape:cx="27.389831"
     inkscape:zoom="3.6875"
     showgrid="false"
     id="namedview947"
     inkscape:window-height="936"
     inkscape:window-width="1920"
     inkscape:pageshadow="2"
     inkscape:pageopacity="0"
     guidetolerance="10"
     gridtolerance="10"
     objecttolerance="10"
     borderopacity="1"
     bordercolor="#666666"
     pagecolor="#8c8c8c"
     inkscape:pagecheckerboard="0" />
  <metadata
     id="metadata30">
    <rdf:RDF>
      <cc:Work
         rdf:about="">
        <dc:format>image/svg+xml</dc:format>
        <dc:type
           rdf:resource="http://purl.org/dc/dcmitype/StillImage" />
      </cc:Work>
    </rdf:RDF>
  </metadata>
  <defs
     id="defs28" />
  <path
     style="fill:#ffffff;stroke-width:0.111328;fill-opacity:1"
     id="path2-0"
     d="M 29.149998,23.450004 34.849999,40.550003 23.449999,51.95 3.5,32.000002 23.449999,12.05 28.437498,17.037499 25.5875,19.887504 23.449999,17.750001 9.200002,32.000002 23.449999,46.250004 29.183398,40.516601 20.599999,32.000002 Z M 40.55,12.05 29.149998,23.450004 l 5.700001,17.099999 8.55,-8.550001 L 34.816601,23.483398 40.55,17.750001 54.8,32.000002 40.55,46.250004 l -2.1375,-2.137502 -2.850001,2.85 L 40.55,51.95 60.5,32.000002 Z" />
</svg>
