<?xml version="1.0" encoding="UTF-8" standalone="no"?>
<!-- Created with Inkscape (http://www.inkscape.org/) -->

<svg
   width="32"
   height="32"
   viewBox="0 0 8.4666665 8.4666669"
   version="1.1"
   id="svg5"
   inkscape:version="1.1.2 (0a00cf5339, 2022-02-04)"
   sodipodi:docname="debian.svg"
   inkscape:export-filename="/home/tgy-tutorials/Scrivania/debian.png"
   inkscape:export-xdpi="96"
   inkscape:export-ydpi="96"
   xmlns:inkscape="http://www.inkscape.org/namespaces/inkscape"
   xmlns:sodipodi="http://sodipodi.sourceforge.net/DTD/sodipodi-0.dtd"
   xmlns="http://www.w3.org/2000/svg"
   xmlns:svg="http://www.w3.org/2000/svg">
  <sodipodi:namedview
     id="namedview7"
     pagecolor="#8c8c8c"
     bordercolor="#666666"
     borderopacity="1.0"
     inkscape:pageshadow="2"
     inkscape:pageopacity="0"
     inkscape:pagecheckerboard="0"
     inkscape:document-units="px"
     showgrid="false"
     units="px"
     inkscape:showpageshadow="false"
     inkscape:zoom="11.071046"
     inkscape:cx="3.1613996"
     inkscape:cy="14.316624"
     inkscape:window-width="1920"
     inkscape:window-height="996"
     inkscape:window-x="0"
     inkscape:window-y="28"
     inkscape:window-maximized="1"
     inkscape:current-layer="layer1" />
  <defs
     id="defs2" />
  <g
     inkscape:label="Livello 1"
     inkscape:groupmode="layer"
     id="layer1">
    <path
       id="path1542"
       style="fill:#e6e6e6;fill-opacity:1;stroke-width:0.391591"
       d="M 4.232924,0.90857917 A 3.3247541,3.3247541 0 0 0 0.90857917,4.2334408 3.3247541,3.3247541 0 0 0 4.232924,7.5583023 3.3247541,3.3247541 0 0 0 7.5577856,4.2334408 3.3247541,3.3247541 0 0 0 4.232924,0.90857917 Z M 4.17298,1.7720924 4.0572248,1.8382384 c 0.1487278,-0.037772 0.1416229,0.016887 0.2950723,-0.00672 -0.054297,0.00708 -0.1179634,0.023559 -0.1085205,0.037724 0.1699747,0.018886 0.1983965,-0.051936 0.3565673,0 l -0.011886,-0.047542 c 0.2219114,0.080265 0.2669591,0.066305 0.5053955,0.1937866 0.084987,0.00236 0.093987,-0.051936 0.219108,0 0.023607,0.037772 -0.0044,0.04458 0.1514121,0.1390096 0.016525,-0.00709 -0.030511,-0.051921 -0.063562,-0.087333 0.3068984,0.1676139 0.6488291,0.5244784 0.7503417,0.9069214 -0.096791,-0.1746916 -0.00932,0.091679 -0.042375,0.077515 0.042494,0.1156772 0.077678,0.236098 0.1012858,0.3612183 C 6.181735,3.311305 6.118448,3.063526 6.0074924,2.9053551 c -0.00708,0.1015126 -0.1419133,-0.07057 -0.06873,0.1560629 0.051936,0.080265 0.011637,-0.082734 0.080099,0.058911 0,0.068462 0.026365,0.1369277 0.042891,0.2242757 -0.023607,-0.00472 -0.05191,-0.096988 -0.070797,-0.07338 0.023607,0.1180379 0.063351,0.1698742 0.077515,0.1793172 -0.00708,0.018886 -0.027905,-0.018701 -0.027905,0.056844 0.00944,0.1746962 0.049327,0.1014383 0.068213,0.1085205 -0.021247,0.087348 -0.096683,0.1866523 -0.058911,0.3353801 L 6.002325,3.8189958 C 5.990521,3.944116 6.0284939,3.9678536 5.971836,4.1213029 6.0143299,3.9796574 6.0093841,3.8617794 5.9692521,3.9207984 5.9904991,4.1143806 5.816301,4.2628331 5.8328263,4.3879533 L 5.7832169,4.3197404 C 5.6486536,4.5156833 5.780719,4.4258482 5.688649,4.5698544 5.7217,4.5155574 5.6719943,4.5506892 5.7144874,4.4845883 5.6861582,4.4869483 5.5848649,4.610136 5.4927955,4.6809587 5.1292386,4.9713321 4.6923428,5.011212 4.2768491,4.8530412 h -0.00258 c 0.00236,-0.00944 4.239e-4,-0.021422 -0.027905,-0.040308 C 3.8898891,4.5412457 3.6797371,4.3102232 3.7481991,3.7719702 3.8072181,3.7318374 3.821,3.5072605 3.9461199,3.4293555 4.0216648,3.2617416 4.2486646,3.1085155 4.491823,3.103794 4.7397027,3.0896294 4.9498953,3.2361042 5.0561295,3.3730282 4.8625474,3.1959713 4.5506264,3.1413838 4.2814999,3.2712256 4.0100125,3.3963458 3.8471353,3.6964296 3.8660213,3.996246 c 0.014165,-0.016526 0.0237,-0.0046 0.028422,-0.042375 -0.00708,0.5831074 0.6277348,1.0101294 1.085722,0.7953003 l 0.00723,0.011886 c 0.1841368,-0.051936 0.1607209,-0.092262 0.2811198,-0.1772502 -0.00944,0.021247 -0.080217,0.070797 -0.037724,0.070797 0.059019,-0.014165 0.2427938,-0.1863846 0.3348635,-0.2666504 0.040133,-0.089709 -0.023362,-0.054185 0.035657,-0.1627807 l 0.070797,-0.035657 C 5.7122459,4.0761992 5.7547949,4.01247 5.7547949,3.8779067 l -0.047542,0.087333 c 0.06138,-0.1841392 0.026213,-0.3844428 0.035657,-0.559139 l -0.016536,-0.00465 C 5.709848,2.9647082 5.3319293,2.4994438 4.9967017,2.3436337 4.7335508,2.2216857 4.3426078,2.1906201 4.1187192,2.2614681 c -0.023161,0.00733 -0.044307,0.015805 -0.063562,0.025321 0.01196,-0.010963 0.038893,-0.018295 0.063562,-0.025321 0.033764,-0.00962 0.062836,-0.018026 0.042375,-0.028939 -0.323424,0.03069 -0.2502812,0.1109259 -0.4981609,0.1746664 -0.068462,0.066101 0.2029886,-0.051984 0.05426,0.037724 -0.1322025,0.03069 -0.1931805,-0.028359 -0.3891235,0.1746663 0.016525,0.028329 0.1248492,-0.082533 0.03514,0.028422 -0.1865,-0.021247 -0.5852559,0.4251744 -0.6702432,0.5715414 l 0.044442,0.0093 C 2.664224,3.4106297 2.5678275,3.5264328 2.5560239,3.6350277 2.5371377,3.9041542 2.4495072,4.3929275 2.5746273,4.5440161 l -0.013952,0.125057 0.05426,0.1059367 -0.028422,0.00258 C 2.7234373,5.209605 2.73288,4.7868998 2.9146586,5.235443 2.8886906,5.226003 2.8604476,5.216654 2.8226746,5.159995 2.8179546,5.20485 2.8794926,5.3226902 2.9503154,5.4147598 l -0.028422,0.033073 c 0.037772,0.073183 0.075318,0.089786 0.1012857,0.1157552 -0.1487276,-0.082626 0.1346751,0.2667543 0.1653646,0.3116089 l 0.023771,-0.040308 c -0.00472,0.056658 0.04007,0.1325112 0.1250569,0.2387452 l 0.070797,-0.00258 c 0.03069,0.056658 0.1367642,0.1606431 0.2005044,0.1653646 l -0.042375,0.056844 c 0.1628923,0.047216 0.077871,0.068187 0.2785359,0.1390097 l -0.040307,-0.070797 c 0.1015127,0.087348 0.1324626,0.1654093 0.2764687,0.2315104 0.2006645,0.070823 0.2264058,0.042267 0.4294312,0.1012857 -0.1723353,0 -0.3751895,2.595e-4 -0.5121135,-0.051676 C 3.0634524,6.3899984 2.2135949,5.2921204 2.270253,4.1636776 2.256088,3.9346839 2.2935557,3.6493112 2.2557838,3.592653 2.3077196,3.4179568 2.3694086,3.2054999 2.494529,2.9528988 2.485089,2.9363733 2.515537,3.0022893 2.579278,2.8960547 2.61705,2.8110674 2.648041,2.7187489 2.6976171,2.6361223 l 0.023254,-0.00672 C 2.7468391,2.4853981 3.0589024,2.2633866 3.1580542,2.1524309 v 0.042375 C 3.3610796,2.0035842 3.7244911,1.8762707 3.9275162,1.7865617 3.8732192,1.8455807 4.0478591,1.7791717 4.17298,1.7720924 Z" />
  </g>
  <style
     type="text/css"
     id="style884">
	.st0{fill:#FFFFFF;}
	.st1{fill:#69B53F;}
	.st2{fill:#F8F8F8;}
</style>
</svg>
