<?xml version="1.0" encoding="UTF-8" standalone="no"?>
<!-- Created with Inkscape (http://www.inkscape.org/) -->

<svg
   width="32"
   height="32"
   viewBox="0 0 8.4666665 8.4666669"
   version="1.1"
   id="svg5"
   inkscape:version="1.1.2 (0a00cf5339, 2022-02-04)"
   sodipodi:docname="elementary.svg"
   inkscape:export-filename="/home/tgy-tutorials/Scrivania/elementary.png"
   inkscape:export-xdpi="96"
   inkscape:export-ydpi="96"
   xmlns:inkscape="http://www.inkscape.org/namespaces/inkscape"
   xmlns:sodipodi="http://sodipodi.sourceforge.net/DTD/sodipodi-0.dtd"
   xmlns="http://www.w3.org/2000/svg"
   xmlns:svg="http://www.w3.org/2000/svg">
  <sodipodi:namedview
     id="namedview7"
     pagecolor="#8c8c8c"
     bordercolor="#666666"
     borderopacity="1.0"
     inkscape:pageshadow="2"
     inkscape:pageopacity="0"
     inkscape:pagecheckerboard="0"
     inkscape:document-units="px"
     showgrid="false"
     units="px"
     inkscape:showpageshadow="false"
     inkscape:zoom="3.9142058"
     inkscape:cx="-7.66439"
     inkscape:cy="27.719544"
     inkscape:window-width="1920"
     inkscape:window-height="996"
     inkscape:window-x="0"
     inkscape:window-y="28"
     inkscape:window-maximized="1"
     inkscape:current-layer="layer1" />
  <defs
     id="defs2">
    <inkscape:path-effect
       is_visible="true"
       id="path-effect2991"
       effect="spiro" />
    <inkscape:path-effect
       effect="spiro"
       id="path-effect3177"
       is_visible="true" />
  </defs>
  <g
     inkscape:label="Livello 1"
     inkscape:groupmode="layer"
     id="layer1">
    <path
       id="path3620"
       style="fill:#e6e6e6;fill-opacity:1;stroke-width:0.629153"
       d="M 4.2334407,0.90857917 A 3.3247541,3.3247541 0 0 0 0.90857917,4.2334408 3.3247541,3.3247541 0 0 0 4.2334407,7.5577857 3.3247541,3.3247541 0 0 0 7.5583023,4.2334408 3.3247541,3.3247541 0 0 0 4.2334407,0.90857917 Z m 0,0.92242433 c 1.3266642,0 2.4024373,1.0757736 2.4024373,2.4024373 0,1.3266634 -1.0757731,2.4019206 -2.4024373,2.4019206 -1.3266634,0 -2.4019205,-1.0752572 -2.4019205,-2.4019206 0,-1.3266637 1.0752571,-2.4024373 2.4019205,-2.4024373 z m 0,0.2005046 c -1.216107,0 -2.2019328,0.9858242 -2.2019328,2.2019327 0,0.4244788 0.1200581,0.8207949 0.3281455,1.1570353 C 2.6020194,5.358094 2.8409574,5.300201 3.0717545,5.2194271 3.0301382,5.1737072 2.9913564,5.1259076 2.9559993,5.0752499 2.79757,4.8483017 2.7052566,4.5770285 2.6831478,4.3011369 2.6389288,3.7493536 2.8797443,3.1949079 3.2696753,2.8020037 3.4908942,2.5790975 3.7668978,2.399574 4.0758276,2.3431169 4.2302919,2.3148879 4.391615,2.3178919 4.5429826,2.3596529 4.694351,2.4014139 4.8354093,2.4824391 4.942958,2.5968477 5.053049,2.7139568 5.1255898,2.8642931 5.1584489,3.021628 5.1913509,3.178963 5.1853459,3.3427978 5.1501789,3.499635 5.0798655,3.8133099 4.8974367,4.0912824 4.68871,4.3357601 4.3707148,4.7082241 3.982372,5.0192033 3.5518286,5.2525 3.7142867,5.3425713 3.8975527,5.3943074 4.0830621,5.4049455 4.329975,5.419105 4.5779573,5.3613599 4.8034318,5.2597347 5.0289049,5.1581096 5.2329754,5.0139137 5.4199316,4.8520077 5.8091099,4.5149765 6.1286239,4.0977418 6.3532079,3.634511 6.0924577,2.709276 5.2420776,2.0315081 4.2334407,2.0315081 Z m 0.013953,0.444934 C 4.0926047,2.4762322 3.9395499,2.5210581 3.8040099,2.5958147 3.53293,2.7453283 3.3393923,3.005987 3.1973286,3.2810442 3.0748021,3.5182739 2.9835389,3.774386 2.9580667,4.040171 c -0.025476,0.2657851 0.017521,0.5421448 0.1488281,0.7746297 0.06284,0.1112618 0.1456597,0.2109021 0.2418458,0.2950724 0.046162,-0.020593 0.0917,-0.042056 0.1369425,-0.064596 C 3.927722,4.8250683 4.325613,4.5102061 4.6246318,4.1171688 4.793509,3.8951921 4.9332913,3.6413281 4.9651794,3.3642432 4.9811284,3.2257006 4.9690294,3.0832565 4.9222884,2.9518653 4.8755474,2.8204739 4.7927486,2.7005483 4.681476,2.6164853 4.5579695,2.5231803 4.4021839,2.4766511 4.2473937,2.4764421 Z M 6.4157368,3.9383684 C 6.2090455,4.327708 5.9372865,4.6827547 5.6152684,4.9837826 5.3449518,5.2364802 5.0352854,5.4539087 4.6856094,5.574961 4.3359326,5.6960135 3.9433362,5.7151745 3.5978205,5.5827124 3.4778423,5.5367152 3.3651534,5.4724433 3.2629573,5.3946102 3.0292532,5.4981298 2.785677,5.5798369 2.5363866,5.6364559 c 0.403887,0.4880444 1.0140754,0.7989177 1.6970541,0.7989177 1.2161081,0 2.2019327,-0.9858246 2.2019327,-2.2019328 0,-0.099956 -0.00673,-0.1986464 -0.019637,-0.2950724 z" />
  </g>
  <style
     type="text/css"
     id="style884">
	.st0{fill:#FFFFFF;}
	.st1{fill:#69B53F;}
	.st2{fill:#F8F8F8;}
</style>
</svg>
