<?xml version="1.0" encoding="UTF-8" standalone="no"?>
<!-- Created with Inkscape (http://www.inkscape.org/) -->

<svg
   width="32"
   height="32"
   viewBox="0 0 8.4666665 8.4666669"
   version="1.1"
   id="svg5"
   inkscape:version="1.1.2 (0a00cf5339, 2022-02-04)"
   sodipodi:docname="kaos.svg"
   inkscape:export-filename="/home/tgy-tutorials/Scrivania/kaos.png"
   inkscape:export-xdpi="96"
   inkscape:export-ydpi="96"
   xmlns:inkscape="http://www.inkscape.org/namespaces/inkscape"
   xmlns:sodipodi="http://sodipodi.sourceforge.net/DTD/sodipodi-0.dtd"
   xmlns="http://www.w3.org/2000/svg"
   xmlns:svg="http://www.w3.org/2000/svg">
  <sodipodi:namedview
     id="namedview7"
     pagecolor="#8c8c8c"
     bordercolor="#666666"
     borderopacity="1.0"
     inkscape:pageshadow="2"
     inkscape:pageopacity="0"
     inkscape:pagecheckerboard="0"
     inkscape:document-units="px"
     showgrid="false"
     units="px"
     inkscape:showpageshadow="false"
     inkscape:zoom="11.071404"
     inkscape:cx="3.0709747"
     inkscape:cy="14.496807"
     inkscape:window-width="1920"
     inkscape:window-height="996"
     inkscape:window-x="0"
     inkscape:window-y="28"
     inkscape:window-maximized="1"
     inkscape:current-layer="layer1" />
  <defs
     id="defs2">
    <clipPath
       clipPathUnits="userSpaceOnUse"
       id="clipPath16">
      <path
         d="M 0,792 612,792 612,0 0,0 0,792 Z"
         id="path18"
         inkscape:connector-curvature="0" />
    </clipPath>
    <clipPath
       clipPathUnits="userSpaceOnUse"
       id="clipPath24">
      <path
         d="m 558.893,526.62 37.604,0 0,-14.904 -37.604,0 0,14.904 z"
         id="path26"
         inkscape:connector-curvature="0" />
    </clipPath>
    <clipPath
       clipPathUnits="userSpaceOnUse"
       id="clipPath28">
      <path
         d="m 596.497,511.716 c -6.962,6.661 -20.973,17.643 -31.626,14.277 -5.954,-1.882 -8.839,-7.319 -2.055,-7.441 13.837,-0.25 20.622,0.731 33.681,-6.836"
         id="path30"
         inkscape:connector-curvature="0"
         style="clip-rule:evenodd" />
    </clipPath>
    <clipPath
       clipPathUnits="userSpaceOnUse"
       id="clipPath58">
      <path
         d="m 558.323,524.527 38.192,0 0,-12.815 -38.192,0 0,12.815 z"
         id="path60"
         inkscape:connector-curvature="0" />
    </clipPath>
    <clipPath
       clipPathUnits="userSpaceOnUse"
       id="clipPath62">
      <path
         d="m 596.515,511.712 c -7.452,6.109 -22.261,15.989 -32.626,11.818 -5.793,-2.332 -8.254,-7.974 -1.48,-7.577 13.816,0.809 20.506,2.306 34.106,-4.241"
         id="path64"
         inkscape:connector-curvature="0"
         style="clip-rule:evenodd" />
    </clipPath>
    <clipPath
       clipPathUnits="userSpaceOnUse"
       id="clipPath92">
      <path
         d="m 556.75,546.201 27.01,0 0,-29.575 -27.01,0 0,29.575 z"
         id="path94"
         inkscape:connector-curvature="0" />
    </clipPath>
    <clipPath
       clipPathUnits="userSpaceOnUse"
       id="clipPath96">
      <path
         d="m 556.75,516.626 c 2.252,9.368 8.092,26.186 18.874,29.118 6.024,1.639 11.393,-1.373 5.753,-5.147 -11.502,-7.696 -17.738,-10.542 -24.627,-23.971"
         id="path98"
         inkscape:connector-curvature="0"
         style="clip-rule:evenodd" />
    </clipPath>
    <clipPath
       clipPathUnits="userSpaceOnUse"
       id="clipPath126">
      <path
         d="m 556.739,544.61 28.84,0 0,-27.979 -28.84,0 0,27.979 z"
         id="path128"
         inkscape:connector-curvature="0" />
    </clipPath>
    <clipPath
       clipPathUnits="userSpaceOnUse"
       id="clipPath160">
      <path
         d="m 548.843,543.235 11.247,0 0,-38.495 -11.247,0 0,38.495 z"
         id="path162"
         inkscape:connector-curvature="0" />
    </clipPath>
    <clipPath
       clipPathUnits="userSpaceOnUse"
       id="clipPath194">
      <path
         d="m 547.048,542.875 13.046,0 0,-38.137 -13.046,0 0,38.137 z"
         id="path196"
         inkscape:connector-curvature="0" />
    </clipPath>
    <clipPath
       id="clipPath16-5"
       clipPathUnits="userSpaceOnUse">
      <path
         inkscape:connector-curvature="0"
         id="path18-5"
         d="M 0,792 612,792 612,0 0,0 0,792 Z" />
    </clipPath>
    <clipPath
       id="clipPath24-8"
       clipPathUnits="userSpaceOnUse">
      <path
         inkscape:connector-curvature="0"
         id="path26-2"
         d="m 558.893,526.62 37.604,0 0,-14.904 -37.604,0 0,14.904 z" />
    </clipPath>
    <clipPath
       id="clipPath28-4"
       clipPathUnits="userSpaceOnUse">
      <path
         style="clip-rule:evenodd"
         inkscape:connector-curvature="0"
         id="path30-4"
         d="m 596.497,511.716 c -6.962,6.661 -20.973,17.643 -31.626,14.277 -5.954,-1.882 -8.839,-7.319 -2.055,-7.441 13.837,-0.25 20.622,0.731 33.681,-6.836" />
    </clipPath>
    <linearGradient
       id="linearGradient32"
       spreadMethod="pad"
       gradientTransform="matrix(46.114929,-17.701843,-17.701843,-46.114929,557.35352,526.32031)"
       gradientUnits="userSpaceOnUse"
       y2="0"
       x2="1"
       y1="0"
       x1="0">
      <stop
         id="stop34"
         offset="0"
         style="stop-opacity:1;stop-color:#8f2c30" />
      <stop
         id="stop36"
         offset="0.179993"
         style="stop-opacity:1;stop-color:#ea1d29" />
      <stop
         id="stop38"
         offset="1"
         style="stop-opacity:1;stop-color:#ffffff" />
    </linearGradient>
    <clipPath
       id="clipPath58-4"
       clipPathUnits="userSpaceOnUse">
      <path
         inkscape:connector-curvature="0"
         id="path60-6"
         d="m 558.323,524.527 38.192,0 0,-12.815 -38.192,0 0,12.815 z" />
    </clipPath>
    <clipPath
       id="clipPath62-0"
       clipPathUnits="userSpaceOnUse">
      <path
         style="clip-rule:evenodd"
         inkscape:connector-curvature="0"
         id="path64-0"
         d="m 596.515,511.712 c -7.452,6.109 -22.261,15.989 -32.626,11.818 -5.793,-2.332 -8.254,-7.974 -1.48,-7.577 13.816,0.809 20.506,2.306 34.106,-4.241" />
    </clipPath>
    <linearGradient
       id="linearGradient66"
       spreadMethod="pad"
       gradientTransform="matrix(51.587097,-15.771759,-15.771759,-51.587097,554.13379,524.05078)"
       gradientUnits="userSpaceOnUse"
       y2="0"
       x2="1"
       y1="0"
       x1="0">
      <stop
         id="stop68"
         offset="0"
         style="stop-opacity:1;stop-color:#8f2c30" />
      <stop
         id="stop70"
         offset="0.179993"
         style="stop-opacity:1;stop-color:#ea1d29" />
      <stop
         id="stop72"
         offset="1"
         style="stop-opacity:1;stop-color:#ffffff" />
    </linearGradient>
    <clipPath
       id="clipPath92-2"
       clipPathUnits="userSpaceOnUse">
      <path
         inkscape:connector-curvature="0"
         id="path94-0"
         d="m 556.75,546.201 27.01,0 0,-29.575 -27.01,0 0,29.575 z" />
    </clipPath>
    <clipPath
       id="clipPath96-2"
       clipPathUnits="userSpaceOnUse">
      <path
         style="clip-rule:evenodd"
         inkscape:connector-curvature="0"
         id="path98-7"
         d="m 556.75,516.626 c 2.252,9.368 8.092,26.186 18.874,29.118 6.024,1.639 11.393,-1.373 5.753,-5.147 -11.502,-7.696 -17.738,-10.542 -24.627,-23.971" />
    </clipPath>
    <linearGradient
       id="linearGradient100"
       spreadMethod="pad"
       gradientTransform="matrix(-470.0033,-394.37976,-394.37976,470.0033,826.65918,750.5918)"
       gradientUnits="userSpaceOnUse"
       y2="0"
       x2="1"
       y1="0"
       x1="0">
      <stop
         id="stop102"
         offset="0"
         style="stop-opacity:1;stop-color:#0256a7" />
      <stop
         id="stop104"
         offset="0.210007"
         style="stop-opacity:1;stop-color:#00b2f0" />
      <stop
         id="stop106"
         offset="1"
         style="stop-opacity:1;stop-color:#ffffff" />
    </linearGradient>
    <clipPath
       id="clipPath126-4"
       clipPathUnits="userSpaceOnUse">
      <path
         inkscape:connector-curvature="0"
         id="path128-4"
         d="m 556.739,544.61 28.84,0 0,-27.979 -28.84,0 0,27.979 z" />
    </clipPath>
    <linearGradient
       id="linearGradient134"
       spreadMethod="pad"
       gradientTransform="matrix(-423.64795,-307.79834,-307.79834,423.64795,799.90723,700.38574)"
       gradientUnits="userSpaceOnUse"
       y2="0"
       x2="1"
       y1="0"
       x1="0">
      <stop
         id="stop136"
         offset="0"
         style="stop-opacity:1;stop-color:#0256a7" />
      <stop
         id="stop138"
         offset="0.210007"
         style="stop-opacity:1;stop-color:#00b2f0" />
      <stop
         id="stop140"
         offset="1"
         style="stop-opacity:1;stop-color:#ffffff" />
    </linearGradient>
    <clipPath
       id="clipPath160-7"
       clipPathUnits="userSpaceOnUse">
      <path
         inkscape:connector-curvature="0"
         id="path162-9"
         d="m 548.843,543.235 11.247,0 0,-38.495 -11.247,0 0,38.495 z" />
    </clipPath>
    <linearGradient
       id="linearGradient168"
       spreadMethod="pad"
       gradientTransform="matrix(-3.823822,-54.68309,-54.68309,3.823822,556.54395,548.15527)"
       gradientUnits="userSpaceOnUse"
       y2="0"
       x2="1"
       y1="0"
       x1="0">
      <stop
         id="stop170"
         offset="0"
         style="stop-opacity:1;stop-color:#faa21b" />
      <stop
         id="stop172"
         offset="0.289993"
         style="stop-opacity:1;stop-color:#ffcd23" />
      <stop
         id="stop174"
         offset="1"
         style="stop-opacity:1;stop-color:#ffffff" />
    </linearGradient>
    <clipPath
       id="clipPath194-4"
       clipPathUnits="userSpaceOnUse">
      <path
         inkscape:connector-curvature="0"
         id="path196-8"
         d="m 547.048,542.875 13.046,0 0,-38.137 -13.046,0 0,38.137 z" />
    </clipPath>
    <linearGradient
       id="linearGradient202"
       spreadMethod="pad"
       gradientTransform="matrix(0,-51.865936,-51.865936,0,553.57031,547.28711)"
       gradientUnits="userSpaceOnUse"
       y2="0"
       x2="1"
       y1="0"
       x1="0">
      <stop
         id="stop204"
         offset="0"
         style="stop-opacity:1;stop-color:#faa21b" />
      <stop
         id="stop206"
         offset="0.289993"
         style="stop-opacity:1;stop-color:#ffcd23" />
      <stop
         id="stop208"
         offset="1"
         style="stop-opacity:1;stop-color:#ffffff" />
    </linearGradient>
    <clipPath
       id="clipPath16-0"
       clipPathUnits="userSpaceOnUse">
      <path
         inkscape:connector-curvature="0"
         id="path18-1"
         d="M 0,792 612,792 612,0 0,0 0,792 Z" />
    </clipPath>
    <clipPath
       id="clipPath16-6"
       clipPathUnits="userSpaceOnUse">
      <path
         inkscape:connector-curvature="0"
         id="path18-3"
         d="m 311.058,513.261 c -5.352,-35.909 119.201,-29.157 70.17,-108.22 l 0,0 c 15.4,24.832 72.067,107.631 78.014,128.069 l 0,0 c 6.969,23.957 -13.916,33.881 -42.06,33.879 l 0,0 c -42.481,-0.003 -101.489,-22.62 -106.124,-53.728" />
    </clipPath>
    <clipPath
       id="clipPath36"
       clipPathUnits="userSpaceOnUse">
      <path
         inkscape:connector-curvature="0"
         id="path38"
         d="m 195.725,405.366 c -17.489,-60.118 140.478,-31.868 148.184,19.849 l 0,0 c 5.351,35.909 -119.202,29.156 -70.17,108.22 l 0,0 c -15.4,-24.832 -72.068,-107.631 -78.014,-128.069" />
    </clipPath>
  </defs>
  <g
     inkscape:label="Livello 1"
     inkscape:groupmode="layer"
     id="layer1">
    <path
       id="path845"
       style="fill:#e6e6e6;stroke-width:0.119229"
       d="M 4.2335917,0.90857917 A 3.3249051,3.3246467 0 0 0 0.90857917,4.2333334 3.3249051,3.3246467 0 0 0 4.2335917,7.5580875 3.3249051,3.3246467 0 0 0 7.5580875,4.2333334 3.3249051,3.3246467 0 0 0 4.2335917,0.90857917 Z M 5.2635497,2.133271 C 5.7809345,2.1321511 6.109856,2.4411916 5.5705217,2.7497509 4.2907303,3.4820232 3.6065645,3.7384876 2.774183,5.114388 3.0833959,4.1354677 3.8295985,2.3914476 4.9974041,2.160142 5.0891802,2.1419675 5.1788868,2.1334548 5.2635497,2.133271 Z M 2.4300024,2.3182667 C 2.5664098,2.3185715 2.6638422,2.4472054 2.6486037,2.7518179 2.5749764,4.2245662 2.4214364,4.9385369 3.1312835,6.3814532 2.4736466,5.5931392 1.4077748,4.0241943 1.8429315,2.9161436 1.9834414,2.5581514 2.2430737,2.317849 2.4300024,2.3182667 Z M 4.0837233,4.2731229 C 5.1145177,4.25378 6.342403,5.0891958 7.0123596,5.6383701 5.5632577,4.9408308 4.8504252,5.1000226 3.3783078,5.186216 2.6565275,5.2285137 2.9186746,4.6275153 3.5359281,4.3790562 3.7084919,4.3096199 3.8928355,4.2767049 4.0837233,4.2731229 Z" />
  </g>
  <style
     type="text/css"
     id="style884">
	.st0{fill:#FFFFFF;}
	.st1{fill:#69B53F;}
	.st2{fill:#F8F8F8;}
</style>
</svg>
