<?xml version="1.0" encoding="UTF-8" standalone="no"?>
<!-- Created with Inkscape (http://www.inkscape.org/) -->

<svg
   width="32"
   height="32"
   viewBox="0 0 8.4666665 8.4666669"
   version="1.1"
   id="svg5"
   inkscape:version="1.1.2 (0a00cf5339, 2022-02-04)"
   sodipodi:docname="memtest.svg"
   inkscape:export-filename="/home/tgy-tutorials/Scrivania/memtest.png"
   inkscape:export-xdpi="96"
   inkscape:export-ydpi="96"
   xmlns:inkscape="http://www.inkscape.org/namespaces/inkscape"
   xmlns:sodipodi="http://sodipodi.sourceforge.net/DTD/sodipodi-0.dtd"
   xmlns="http://www.w3.org/2000/svg"
   xmlns:svg="http://www.w3.org/2000/svg">
  <sodipodi:namedview
     id="namedview7"
     pagecolor="#8c8c8c"
     bordercolor="#666666"
     borderopacity="1.0"
     inkscape:pageshadow="2"
     inkscape:pageopacity="0"
     inkscape:pagecheckerboard="0"
     inkscape:document-units="px"
     showgrid="false"
     units="px"
     inkscape:showpageshadow="false"
     inkscape:zoom="17.397395"
     inkscape:cx="8.7369402"
     inkscape:cy="11.409754"
     inkscape:window-width="1920"
     inkscape:window-height="996"
     inkscape:window-x="0"
     inkscape:window-y="28"
     inkscape:window-maximized="1"
     inkscape:current-layer="layer1" />
  <defs
     id="defs2" />
  <g
     inkscape:label="Livello 1"
     inkscape:groupmode="layer"
     id="layer1">
    <g
       id="g918"
       transform="matrix(0.01299698,0,0,0.01299698,0.90610671,0.90610671)"
       style="fill:#e6e6e6;fill-opacity:1">
	<path
   class="st0"
   d="M 106.672,42.432 C 106.672,32.474 98.598,24.4 88.65,24.4 h -6.63 c -9.948,0 -18.022,8.074 -18.022,18.032 V 92.31 h 42.674 V 42.432 Z"
   id="path892"
   style="fill:#e6e6e6;fill-opacity:1" />

	<path
   class="st0"
   d="m 192.003,42.432 c 0,-9.958 -8.074,-18.032 -18.023,-18.032 h -6.62 c -9.94,0 -18.013,8.074 -18.013,18.032 V 92.31 h 42.657 V 42.432 Z"
   id="path894"
   style="fill:#e6e6e6;fill-opacity:1" />

	<path
   class="st0"
   d="m 277.332,42.432 c 0,-9.958 -8.074,-18.032 -18.022,-18.032 h -6.62 c -9.94,0 -18.013,8.074 -18.013,18.032 V 92.31 h 42.656 V 42.432 Z"
   id="path896"
   style="fill:#e6e6e6;fill-opacity:1" />

	<path
   class="st0"
   d="m 362.672,42.432 c 0,-9.958 -8.074,-18.032 -18.014,-18.032 h -6.638 c -9.94,0 -18.014,8.074 -18.014,18.032 V 92.31 h 42.666 z"
   id="path898"
   style="fill:#e6e6e6;fill-opacity:1" />

	<path
   class="st0"
   d="m 63.998,469.569 c 0,9.958 8.074,18.031 18.022,18.031 h 6.63 c 9.949,0 18.022,-8.074 18.022,-18.031 v -49.86 H 63.998 Z"
   id="path900"
   style="fill:#e6e6e6;fill-opacity:1" />

	<path
   class="st0"
   d="m 149.346,469.569 c 0,9.958 8.074,18.031 18.013,18.031 h 6.62 c 9.949,0 18.023,-8.074 18.023,-18.031 v -49.86 h -42.657 v 49.86 z"
   id="path902"
   style="fill:#e6e6e6;fill-opacity:1" />

	<path
   class="st0"
   d="m 234.677,469.569 c 0,9.958 8.074,18.031 18.013,18.031 h 6.62 c 9.948,0 18.022,-8.074 18.022,-18.031 v -49.86 h -42.656 v 49.86 z"
   id="path904"
   style="fill:#e6e6e6;fill-opacity:1" />

	<path
   class="st0"
   d="m 320.006,469.569 c 0,9.958 8.074,18.031 18.014,18.031 h 6.638 c 9.94,0 18.014,-8.074 18.014,-18.031 v -49.86 h -42.666 z"
   id="path906"
   style="fill:#e6e6e6;fill-opacity:1" />

	<path
   class="st0"
   d="m 448.002,42.432 c 0,-9.958 -8.056,-18.032 -18.032,-18.032 h -6.62 c -9.94,0 -18.013,8.074 -18.013,18.032 V 92.31 h 42.665 z"
   id="path908"
   style="fill:#e6e6e6;fill-opacity:1" />

	<path
   class="st0"
   d="m 405.337,469.569 c 0,9.958 8.074,18.031 18.013,18.031 h 6.62 c 9.976,0 18.032,-8.074 18.032,-18.031 v -49.86 h -42.665 z"
   id="path910"
   style="fill:#e6e6e6;fill-opacity:1" />

	<path
   class="st0"
   d="M 168.176,223.974 H 148.97 c -0.529,0 -0.789,0.26 -0.789,0.79 v 23.978 c 0,0.529 0.26,0.79 0.789,0.79 h 19.206 c 8.209,0 13.77,-5.033 13.77,-12.712 0,-7.813 -5.562,-12.846 -13.77,-12.846 z"
   id="path912"
   style="fill:#e6e6e6;fill-opacity:1" />

	<polygon
   class="st0"
   points="238.48,267.286 262.845,267.286 250.932,232.317 250.536,232.317 "
   id="polygon914"
   style="fill:#e6e6e6;fill-opacity:1" />

	<path
   class="st0"
   d="M 0,118.971 V 393.047 H 512 V 118.971 Z m 198.38,181.031 h -14.712 c -1.058,0 -1.578,-0.395 -1.982,-1.328 l -17.215,-35.103 h -15.502 c -0.529,0 -0.789,0.269 -0.789,0.798 v 34.304 c 0,0.798 -0.538,1.328 -1.328,1.328 h -12.989 c -0.79,0 -1.319,-0.529 -1.319,-1.328 v -87.42 c 0,-0.799 0.529,-1.328 1.319,-1.328 h 34.842 c 16.561,0 28.742,10.998 28.742,26.895 0,11.788 -6.754,20.929 -17.08,24.768 l 18.937,36.69 c 0.53,0.926 0.001,1.724 -0.924,1.724 z m 89.906,0 h -12.99 c -0.915,0 -1.453,-0.395 -1.713,-1.328 l -5.966,-17.485 h -33.91 l -5.956,17.485 c -0.269,0.932 -0.79,1.328 -1.722,1.328 h -12.847 c -0.932,0 -1.201,-0.529 -0.932,-1.328 l 30.859,-87.42 c 0.269,-0.799 0.807,-1.328 1.722,-1.328 h 12.192 c 0.924,0 1.462,0.529 1.722,1.328 l 30.465,87.42 c 0.26,0.799 0,1.328 -0.924,1.328 z m 93.485,-1.327 c 0,0.798 -0.53,1.328 -1.328,1.328 h -11.527 c -0.79,0 -1.319,-0.529 -1.319,-1.328 v -55.099 h -0.529 l -19.072,42.388 c -0.538,1.193 -1.327,1.722 -2.52,1.722 h -7.688 c -1.184,0 -1.982,-0.529 -2.512,-1.722 l -19.071,-42.388 h -0.529 v 55.099 c 0,0.798 -0.53,1.328 -1.328,1.328 H 302.82 c -0.789,0 -1.318,-0.529 -1.318,-1.328 v -87.42 c 0,-0.799 0.529,-1.328 1.318,-1.328 h 11.788 c 1.202,0 1.867,0.404 2.261,1.328 l 24.768,55.502 h 0.529 l 24.374,-55.502 c 0.394,-0.924 1.058,-1.328 2.252,-1.328 h 11.652 c 0.798,0 1.328,0.529 1.328,1.328 v 87.42 z"
   id="path916"
   style="fill:#e6e6e6;fill-opacity:1" />

</g>
  </g>
  <style
     type="text/css"
     id="style884">
	.st0{fill:#FFFFFF;}
	.st1{fill:#69B53F;}
	.st2{fill:#F8F8F8;}
</style>
  <style
     type="text/css"
     id="style890">
	.st0{fill:#000000;}
</style>
</svg>
