<?xml version="1.0" encoding="UTF-8" standalone="no"?>
<!-- Created with Inkscape (http://www.inkscape.org/) -->

<svg
   width="32"
   height="32"
   viewBox="0 0 8.4666665 8.4666669"
   version="1.1"
   id="svg5"
   inkscape:version="1.1.2 (0a00cf5339, 2022-02-04)"
   sodipodi:docname="parrot.svg"
   inkscape:export-filename="/home/tgy-tutorials/Scrivania/parrot.png"
   inkscape:export-xdpi="96"
   inkscape:export-ydpi="96"
   xmlns:inkscape="http://www.inkscape.org/namespaces/inkscape"
   xmlns:sodipodi="http://sodipodi.sourceforge.net/DTD/sodipodi-0.dtd"
   xmlns="http://www.w3.org/2000/svg"
   xmlns:svg="http://www.w3.org/2000/svg">
  <sodipodi:namedview
     id="namedview7"
     pagecolor="#8c8c8c"
     bordercolor="#666666"
     borderopacity="1.0"
     inkscape:pageshadow="2"
     inkscape:pageopacity="0"
     inkscape:pagecheckerboard="0"
     inkscape:document-units="px"
     showgrid="false"
     units="px"
     inkscape:showpageshadow="false"
     inkscape:zoom="13.55616"
     inkscape:cx="-8.0406254"
     inkscape:cy="-2.692503"
     inkscape:window-width="1920"
     inkscape:window-height="996"
     inkscape:window-x="0"
     inkscape:window-y="28"
     inkscape:window-maximized="1"
     inkscape:current-layer="layer1" />
  <defs
     id="defs2">
    <clipPath
       clipPathUnits="userSpaceOnUse"
       id="clipPath16">
      <path
         d="M 0,792 612,792 612,0 0,0 0,792 Z"
         id="path18"
         inkscape:connector-curvature="0" />
    </clipPath>
    <clipPath
       clipPathUnits="userSpaceOnUse"
       id="clipPath24">
      <path
         d="m 558.893,526.62 37.604,0 0,-14.904 -37.604,0 0,14.904 z"
         id="path26"
         inkscape:connector-curvature="0" />
    </clipPath>
    <clipPath
       clipPathUnits="userSpaceOnUse"
       id="clipPath28">
      <path
         d="m 596.497,511.716 c -6.962,6.661 -20.973,17.643 -31.626,14.277 -5.954,-1.882 -8.839,-7.319 -2.055,-7.441 13.837,-0.25 20.622,0.731 33.681,-6.836"
         id="path30"
         inkscape:connector-curvature="0"
         style="clip-rule:evenodd" />
    </clipPath>
    <clipPath
       clipPathUnits="userSpaceOnUse"
       id="clipPath58">
      <path
         d="m 558.323,524.527 38.192,0 0,-12.815 -38.192,0 0,12.815 z"
         id="path60"
         inkscape:connector-curvature="0" />
    </clipPath>
    <clipPath
       clipPathUnits="userSpaceOnUse"
       id="clipPath62">
      <path
         d="m 596.515,511.712 c -7.452,6.109 -22.261,15.989 -32.626,11.818 -5.793,-2.332 -8.254,-7.974 -1.48,-7.577 13.816,0.809 20.506,2.306 34.106,-4.241"
         id="path64"
         inkscape:connector-curvature="0"
         style="clip-rule:evenodd" />
    </clipPath>
    <clipPath
       clipPathUnits="userSpaceOnUse"
       id="clipPath92">
      <path
         d="m 556.75,546.201 27.01,0 0,-29.575 -27.01,0 0,29.575 z"
         id="path94"
         inkscape:connector-curvature="0" />
    </clipPath>
    <clipPath
       clipPathUnits="userSpaceOnUse"
       id="clipPath96">
      <path
         d="m 556.75,516.626 c 2.252,9.368 8.092,26.186 18.874,29.118 6.024,1.639 11.393,-1.373 5.753,-5.147 -11.502,-7.696 -17.738,-10.542 -24.627,-23.971"
         id="path98"
         inkscape:connector-curvature="0"
         style="clip-rule:evenodd" />
    </clipPath>
    <clipPath
       clipPathUnits="userSpaceOnUse"
       id="clipPath126">
      <path
         d="m 556.739,544.61 28.84,0 0,-27.979 -28.84,0 0,27.979 z"
         id="path128"
         inkscape:connector-curvature="0" />
    </clipPath>
    <clipPath
       clipPathUnits="userSpaceOnUse"
       id="clipPath160">
      <path
         d="m 548.843,543.235 11.247,0 0,-38.495 -11.247,0 0,38.495 z"
         id="path162"
         inkscape:connector-curvature="0" />
    </clipPath>
    <clipPath
       clipPathUnits="userSpaceOnUse"
       id="clipPath194">
      <path
         d="m 547.048,542.875 13.046,0 0,-38.137 -13.046,0 0,38.137 z"
         id="path196"
         inkscape:connector-curvature="0" />
    </clipPath>
    <clipPath
       id="clipPath16-5"
       clipPathUnits="userSpaceOnUse">
      <path
         inkscape:connector-curvature="0"
         id="path18-5"
         d="M 0,792 612,792 612,0 0,0 0,792 Z" />
    </clipPath>
    <clipPath
       id="clipPath24-8"
       clipPathUnits="userSpaceOnUse">
      <path
         inkscape:connector-curvature="0"
         id="path26-2"
         d="m 558.893,526.62 37.604,0 0,-14.904 -37.604,0 0,14.904 z" />
    </clipPath>
    <clipPath
       id="clipPath28-4"
       clipPathUnits="userSpaceOnUse">
      <path
         style="clip-rule:evenodd"
         inkscape:connector-curvature="0"
         id="path30-4"
         d="m 596.497,511.716 c -6.962,6.661 -20.973,17.643 -31.626,14.277 -5.954,-1.882 -8.839,-7.319 -2.055,-7.441 13.837,-0.25 20.622,0.731 33.681,-6.836" />
    </clipPath>
    <linearGradient
       id="linearGradient32"
       spreadMethod="pad"
       gradientTransform="matrix(46.114929,-17.701843,-17.701843,-46.114929,557.35352,526.32031)"
       gradientUnits="userSpaceOnUse"
       y2="0"
       x2="1"
       y1="0"
       x1="0">
      <stop
         id="stop34"
         offset="0"
         style="stop-opacity:1;stop-color:#8f2c30" />
      <stop
         id="stop36"
         offset="0.179993"
         style="stop-opacity:1;stop-color:#ea1d29" />
      <stop
         id="stop38"
         offset="1"
         style="stop-opacity:1;stop-color:#ffffff" />
    </linearGradient>
    <clipPath
       id="clipPath58-4"
       clipPathUnits="userSpaceOnUse">
      <path
         inkscape:connector-curvature="0"
         id="path60-6"
         d="m 558.323,524.527 38.192,0 0,-12.815 -38.192,0 0,12.815 z" />
    </clipPath>
    <clipPath
       id="clipPath62-0"
       clipPathUnits="userSpaceOnUse">
      <path
         style="clip-rule:evenodd"
         inkscape:connector-curvature="0"
         id="path64-0"
         d="m 596.515,511.712 c -7.452,6.109 -22.261,15.989 -32.626,11.818 -5.793,-2.332 -8.254,-7.974 -1.48,-7.577 13.816,0.809 20.506,2.306 34.106,-4.241" />
    </clipPath>
    <linearGradient
       id="linearGradient66"
       spreadMethod="pad"
       gradientTransform="matrix(51.587097,-15.771759,-15.771759,-51.587097,554.13379,524.05078)"
       gradientUnits="userSpaceOnUse"
       y2="0"
       x2="1"
       y1="0"
       x1="0">
      <stop
         id="stop68"
         offset="0"
         style="stop-opacity:1;stop-color:#8f2c30" />
      <stop
         id="stop70"
         offset="0.179993"
         style="stop-opacity:1;stop-color:#ea1d29" />
      <stop
         id="stop72"
         offset="1"
         style="stop-opacity:1;stop-color:#ffffff" />
    </linearGradient>
    <clipPath
       id="clipPath92-2"
       clipPathUnits="userSpaceOnUse">
      <path
         inkscape:connector-curvature="0"
         id="path94-0"
         d="m 556.75,546.201 27.01,0 0,-29.575 -27.01,0 0,29.575 z" />
    </clipPath>
    <clipPath
       id="clipPath96-2"
       clipPathUnits="userSpaceOnUse">
      <path
         style="clip-rule:evenodd"
         inkscape:connector-curvature="0"
         id="path98-7"
         d="m 556.75,516.626 c 2.252,9.368 8.092,26.186 18.874,29.118 6.024,1.639 11.393,-1.373 5.753,-5.147 -11.502,-7.696 -17.738,-10.542 -24.627,-23.971" />
    </clipPath>
    <linearGradient
       id="linearGradient100"
       spreadMethod="pad"
       gradientTransform="matrix(-470.0033,-394.37976,-394.37976,470.0033,826.65918,750.5918)"
       gradientUnits="userSpaceOnUse"
       y2="0"
       x2="1"
       y1="0"
       x1="0">
      <stop
         id="stop102"
         offset="0"
         style="stop-opacity:1;stop-color:#0256a7" />
      <stop
         id="stop104"
         offset="0.210007"
         style="stop-opacity:1;stop-color:#00b2f0" />
      <stop
         id="stop106"
         offset="1"
         style="stop-opacity:1;stop-color:#ffffff" />
    </linearGradient>
    <clipPath
       id="clipPath126-4"
       clipPathUnits="userSpaceOnUse">
      <path
         inkscape:connector-curvature="0"
         id="path128-4"
         d="m 556.739,544.61 28.84,0 0,-27.979 -28.84,0 0,27.979 z" />
    </clipPath>
    <linearGradient
       id="linearGradient134"
       spreadMethod="pad"
       gradientTransform="matrix(-423.64795,-307.79834,-307.79834,423.64795,799.90723,700.38574)"
       gradientUnits="userSpaceOnUse"
       y2="0"
       x2="1"
       y1="0"
       x1="0">
      <stop
         id="stop136"
         offset="0"
         style="stop-opacity:1;stop-color:#0256a7" />
      <stop
         id="stop138"
         offset="0.210007"
         style="stop-opacity:1;stop-color:#00b2f0" />
      <stop
         id="stop140"
         offset="1"
         style="stop-opacity:1;stop-color:#ffffff" />
    </linearGradient>
    <clipPath
       id="clipPath160-7"
       clipPathUnits="userSpaceOnUse">
      <path
         inkscape:connector-curvature="0"
         id="path162-9"
         d="m 548.843,543.235 11.247,0 0,-38.495 -11.247,0 0,38.495 z" />
    </clipPath>
    <linearGradient
       id="linearGradient168"
       spreadMethod="pad"
       gradientTransform="matrix(-3.823822,-54.68309,-54.68309,3.823822,556.54395,548.15527)"
       gradientUnits="userSpaceOnUse"
       y2="0"
       x2="1"
       y1="0"
       x1="0">
      <stop
         id="stop170"
         offset="0"
         style="stop-opacity:1;stop-color:#faa21b" />
      <stop
         id="stop172"
         offset="0.289993"
         style="stop-opacity:1;stop-color:#ffcd23" />
      <stop
         id="stop174"
         offset="1"
         style="stop-opacity:1;stop-color:#ffffff" />
    </linearGradient>
    <clipPath
       id="clipPath194-4"
       clipPathUnits="userSpaceOnUse">
      <path
         inkscape:connector-curvature="0"
         id="path196-8"
         d="m 547.048,542.875 13.046,0 0,-38.137 -13.046,0 0,38.137 z" />
    </clipPath>
    <linearGradient
       id="linearGradient202"
       spreadMethod="pad"
       gradientTransform="matrix(0,-51.865936,-51.865936,0,553.57031,547.28711)"
       gradientUnits="userSpaceOnUse"
       y2="0"
       x2="1"
       y1="0"
       x1="0">
      <stop
         id="stop204"
         offset="0"
         style="stop-opacity:1;stop-color:#faa21b" />
      <stop
         id="stop206"
         offset="0.289993"
         style="stop-opacity:1;stop-color:#ffcd23" />
      <stop
         id="stop208"
         offset="1"
         style="stop-opacity:1;stop-color:#ffffff" />
    </linearGradient>
    <clipPath
       id="clipPath16-0"
       clipPathUnits="userSpaceOnUse">
      <path
         inkscape:connector-curvature="0"
         id="path18-1"
         d="M 0,792 612,792 612,0 0,0 0,792 Z" />
    </clipPath>
    <clipPath
       id="clipPath16-6"
       clipPathUnits="userSpaceOnUse">
      <path
         inkscape:connector-curvature="0"
         id="path18-3"
         d="m 311.058,513.261 c -5.352,-35.909 119.201,-29.157 70.17,-108.22 l 0,0 c 15.4,24.832 72.067,107.631 78.014,128.069 l 0,0 c 6.969,23.957 -13.916,33.881 -42.06,33.879 l 0,0 c -42.481,-0.003 -101.489,-22.62 -106.124,-53.728" />
    </clipPath>
    <clipPath
       id="clipPath36"
       clipPathUnits="userSpaceOnUse">
      <path
         inkscape:connector-curvature="0"
         id="path38"
         d="m 195.725,405.366 c -17.489,-60.118 140.478,-31.868 148.184,19.849 l 0,0 c 5.351,35.909 -119.202,29.156 -70.17,108.22 l 0,0 c -15.4,-24.832 -72.068,-107.631 -78.014,-128.069" />
    </clipPath>
    <inkscape:perspective
       id="perspective29"
       inkscape:persp3d-origin="389.8085 : 486.61502 : 1"
       inkscape:vp_z="779.61699 : 514.96152 : 1"
       inkscape:vp_y="0 : 1000 : 0"
       inkscape:vp_x="0 : 514.96152 : 1"
       sodipodi:type="inkscape:persp3d" />
    <inkscape:perspective
       sodipodi:type="inkscape:persp3d"
       inkscape:vp_x="0 : 430.42202 : 1"
       inkscape:vp_y="0 : 1000 : 0"
       inkscape:vp_z="0.99999999 : 430.42202 : 1"
       inkscape:persp3d-origin="0.5 : 430.25535 : 1"
       id="perspective3135" />
    <inkscape:perspective
       sodipodi:type="inkscape:persp3d"
       inkscape:vp_x="0 : 430.42202 : 1"
       inkscape:vp_y="0 : 1000 : 0"
       inkscape:vp_z="0.99999999 : 430.42202 : 1"
       inkscape:persp3d-origin="0.5 : 430.25535 : 1"
       id="perspective3415" />
    <inkscape:perspective
       sodipodi:type="inkscape:persp3d"
       inkscape:vp_x="0 : 430.42202 : 1"
       inkscape:vp_y="0 : 1000 : 0"
       inkscape:vp_z="0.99999999 : 430.42202 : 1"
       inkscape:persp3d-origin="0.5 : 430.25535 : 1"
       id="perspective2861" />
    <clipPath
       id="vlpa">
      <path
         d="m0 200.3h320v-200.3h-320v200.3z"
         id="path14002" />
    </clipPath>
    <style
       id="style16267">
      .cls-1, .cls-2, .cls-3 {
        fill: none;
      }

      .cls-4 {
        clip-path: url(#clippath);
      }

      .cls-5 {
        fill: #fff;
      }

      .cls-6, .cls-7 {
        fill: #6fc9ec;
      }

      .cls-8 {
        clip-path: url(#clippath-1);
      }

      .cls-9 {
        clip-path: url(#clippath-4);
      }

      .cls-10 {
        clip-path: url(#clippath-3);
      }

      .cls-11 {
        clip-path: url(#clippath-2);
      }

      .cls-7 {
        stroke: #1d71b8;
      }

      .cls-7, .cls-2 {
        stroke-miterlimit: 10;
      }

      .cls-2 {
        stroke: #1d1d1b;
      }

      .cls-3 {
        stroke: #6fc9ec;
        stroke-miterlimit: 11.34;
        stroke-width: 1.12px;
      }

      .cls-12 {
        opacity: .94;
      }
    </style>
    <clipPath
       id="clippath">
      <circle
         class="cls-2"
         cx="405.5"
         cy="496.38"
         r="405"
         id="circle16269" />
    </clipPath>
    <clipPath
       id="clippath-1">
      <rect
         class="cls-1"
         x="13.28"
         width="784.44"
         height="784.44"
         id="rect16272" />
    </clipPath>
    <clipPath
       id="clippath-2">
      <rect
         class="cls-1"
         x="13.28"
         width="784.44"
         height="784.44"
         id="rect16275" />
    </clipPath>
    <clipPath
       id="clippath-3">
      <rect
         class="cls-1"
         x="13.28"
         width="784.44"
         height="784.44"
         id="rect16278" />
    </clipPath>
    <clipPath
       id="clippath-4">
      <rect
         class="cls-1"
         x="219.28"
         y="146.21"
         width="406.13"
         height="544.49"
         id="rect16281" />
    </clipPath>
  </defs>
  <g
     inkscape:label="Livello 1"
     inkscape:groupmode="layer"
     id="layer1">
    <g
       id="layer7"
       inkscape:label="bg"
       style="display:none"
       transform="matrix(0.28222222,0,0,0.28222222,-336.02294,-202.48802)">
      <rect
         transform="translate(-132.5822,958.04022)"
         style="color:#000000;clip-rule:nonzero;display:inline;overflow:visible;visibility:visible;opacity:1;isolation:auto;mix-blend-mode:normal;color-interpolation:sRGB;color-interpolation-filters:linearRGB;solid-color:#000000;solid-opacity:1;fill:#ffffff;fill-opacity:1;fill-rule:evenodd;stroke:none;stroke-width:3;stroke-linecap:butt;stroke-linejoin:round;stroke-miterlimit:4;stroke-dasharray:none;stroke-dashoffset:0;stroke-opacity:1;marker:none;color-rendering:auto;image-rendering:auto;shape-rendering:auto;text-rendering:auto;enable-background:accumulate"
         id="rect5389"
         width="1543.4283"
         height="483.7439"
         x="132.5822"
         y="-957.77832" />
    </g>
    <g
       id="layer5"
       inkscape:label="guide"
       style="display:none;opacity:0.516"
       transform="matrix(0.28222222,0,0,0.28222222,-373.44058,67.892218)">
      <rect
         y="-957.77832"
         x="132.5822"
         height="483.7439"
         width="1543.4283"
         id="rect5350"
         style="color:#000000;clip-rule:nonzero;display:inline;overflow:visible;visibility:visible;opacity:1;isolation:auto;mix-blend-mode:normal;color-interpolation:sRGB;color-interpolation-filters:linearRGB;solid-color:#000000;solid-opacity:1;fill:#d4d4d4;fill-opacity:1;fill-rule:evenodd;stroke:none;stroke-width:3;stroke-linecap:butt;stroke-linejoin:round;stroke-miterlimit:4;stroke-dasharray:none;stroke-dashoffset:0;stroke-opacity:1;marker:none;color-rendering:auto;image-rendering:auto;shape-rendering:auto;text-rendering:auto;enable-background:accumulate" />
      <rect
         style="color:#000000;clip-rule:nonzero;display:inline;overflow:visible;visibility:visible;opacity:1;isolation:auto;mix-blend-mode:normal;color-interpolation:sRGB;color-interpolation-filters:linearRGB;solid-color:#000000;solid-opacity:1;fill:#9b9b9b;fill-opacity:1;fill-rule:evenodd;stroke:none;stroke-width:3;stroke-linecap:butt;stroke-linejoin:round;stroke-miterlimit:4;stroke-dasharray:none;stroke-dashoffset:0;stroke-opacity:1;marker:none;color-rendering:auto;image-rendering:auto;shape-rendering:auto;text-rendering:auto;enable-background:accumulate"
         id="rect5346"
         width="1496.443"
         height="435.68069"
         x="155.77646"
         y="-933.38721"
         inkscape:export-xdpi="17.971878"
         inkscape:export-ydpi="17.971878" />
      <rect
         y="-851.65918"
         x="159.02695"
         height="272.58423"
         width="1492.5731"
         id="rect5348"
         style="color:#000000;clip-rule:nonzero;display:inline;overflow:visible;visibility:visible;opacity:1;isolation:auto;mix-blend-mode:normal;color-interpolation:sRGB;color-interpolation-filters:linearRGB;solid-color:#000000;solid-opacity:1;fill:#848484;fill-opacity:1;fill-rule:evenodd;stroke:none;stroke-width:3;stroke-linecap:butt;stroke-linejoin:round;stroke-miterlimit:4;stroke-dasharray:none;stroke-dashoffset:0;stroke-opacity:1;marker:none;color-rendering:auto;image-rendering:auto;shape-rendering:auto;text-rendering:auto;enable-background:accumulate" />
    </g>
    <g
       id="layer6"
       inkscape:label="logo-guide"
       style="display:none"
       transform="matrix(0.28222222,0,0,0.28222222,-373.44058,67.892218)">
      <rect
         y="-958.02759"
         x="132.65129"
         height="484.30399"
         width="550.41602"
         id="rect5379"
         style="color:#000000;clip-rule:nonzero;display:inline;overflow:visible;visibility:visible;opacity:1;isolation:auto;mix-blend-mode:normal;color-interpolation:sRGB;color-interpolation-filters:linearRGB;solid-color:#000000;solid-opacity:1;fill:#5c201e;fill-opacity:1;fill-rule:evenodd;stroke:none;stroke-width:3;stroke-linecap:butt;stroke-linejoin:round;stroke-miterlimit:4;stroke-dasharray:none;stroke-dashoffset:0;stroke-opacity:1;marker:none;color-rendering:auto;image-rendering:auto;shape-rendering:auto;text-rendering:auto;enable-background:accumulate"
         inkscape:export-filename="/home/tim/dev/nix/homepage/logo/nix-wiki.png"
         inkscape:export-xdpi="22.07"
         inkscape:export-ydpi="22.07" />
      <rect
         style="color:#000000;clip-rule:nonzero;display:inline;overflow:visible;visibility:visible;opacity:1;isolation:auto;mix-blend-mode:normal;color-interpolation:sRGB;color-interpolation-filters:linearRGB;solid-color:#000000;solid-opacity:1;fill:#c24a46;fill-opacity:1;fill-rule:evenodd;stroke:none;stroke-width:3;stroke-linecap:butt;stroke-linejoin:round;stroke-miterlimit:4;stroke-dasharray:none;stroke-dashoffset:0;stroke-opacity:1;marker:none;color-rendering:auto;image-rendering:auto;shape-rendering:auto;text-rendering:auto;enable-background:accumulate"
         id="rect5372"
         width="501.94415"
         height="434.30405"
         x="156.12303"
         y="-933.02759"
         inkscape:export-filename="/home/tim/dev/nix/homepage/logo/nixos-logo-only-hires-print.png"
         inkscape:export-xdpi="212.2"
         inkscape:export-ydpi="212.2" />
      <rect
         style="color:#000000;clip-rule:nonzero;display:inline;overflow:visible;visibility:visible;opacity:1;isolation:auto;mix-blend-mode:normal;color-interpolation:sRGB;color-interpolation-filters:linearRGB;solid-color:#000000;solid-opacity:1;fill:#d98d8a;fill-opacity:1;fill-rule:evenodd;stroke:none;stroke-width:3;stroke-linecap:butt;stroke-linejoin:round;stroke-miterlimit:4;stroke-dasharray:none;stroke-dashoffset:0;stroke-opacity:1;marker:none;color-rendering:auto;image-rendering:auto;shape-rendering:auto;text-rendering:auto;enable-background:accumulate"
         id="rect5381"
         width="24.939611"
         height="24.939611"
         x="658.02826"
         y="-958.04022" />
    </g>
    <path
       id="path14976"
       style="fill:#e6e6e6;fill-opacity:1;stroke:none;stroke-width:37.2115;stroke-miterlimit:4;stroke-dasharray:none;stroke-opacity:1"
       d="M 4.2334407,0.90857917 A 3.3247541,3.3247541 0 0 0 0.90857917,4.2334408 3.3247541,3.3247541 0 0 0 4.2334407,7.5583023 3.3247541,3.3247541 0 0 0 7.5577856,4.2334408 3.3247541,3.3247541 0 0 0 4.2334407,0.90857917 Z M 3.3358211,1.7591732 4.6654558,2.2480323 6.5144385,4.9532935 5.6891659,4.4644344 5.6586768,6.206447 5.2462988,5.3966773 4.9098853,6.8637711 4.8638933,3.9905615 4.1765968,3.7766211 3.6722349,2.7523943 3.1063779,2.3095273 2.6939999,2.8748674 2.7244889,1.8966326 Z" />
  </g>
  <style
     type="text/css"
     id="style884">
	.st0{fill:#FFFFFF;}
	.st1{fill:#69B53F;}
	.st2{fill:#F8F8F8;}
</style>
</svg>
