<?xml version="1.0" encoding="UTF-8" standalone="no"?>
<!-- Created with Inkscape (http://www.inkscape.org/) -->

<svg
   width="32"
   height="32"
   viewBox="0 0 8.4666665 8.4666669"
   version="1.1"
   id="svg5"
   inkscape:version="1.1.2 (0a00cf5339, 2022-02-04)"
   sodipodi:docname="type.svg"
   inkscape:export-filename="/home/tgy-tutorials/Scrivania/type.png"
   inkscape:export-xdpi="96"
   inkscape:export-ydpi="96"
   xmlns:inkscape="http://www.inkscape.org/namespaces/inkscape"
   xmlns:sodipodi="http://sodipodi.sourceforge.net/DTD/sodipodi-0.dtd"
   xmlns="http://www.w3.org/2000/svg"
   xmlns:svg="http://www.w3.org/2000/svg">
  <sodipodi:namedview
     id="namedview7"
     pagecolor="#8c8c8c"
     bordercolor="#666666"
     borderopacity="1.0"
     inkscape:pageshadow="2"
     inkscape:pageopacity="0"
     inkscape:pagecheckerboard="0"
     inkscape:document-units="px"
     showgrid="false"
     units="px"
     inkscape:showpageshadow="false"
     inkscape:zoom="11.071404"
     inkscape:cx="8.7613098"
     inkscape:cy="6.81937"
     inkscape:window-width="1920"
     inkscape:window-height="996"
     inkscape:window-x="0"
     inkscape:window-y="28"
     inkscape:window-maximized="1"
     inkscape:current-layer="layer1" />
  <defs
     id="defs2" />
  <g
     inkscape:label="Livello 1"
     inkscape:groupmode="layer"
     id="layer1">
    <path
       d="M 3.3253385,7.3883484 3.0214961,7.5897323 1.9615806,6.883122 0.90166521,7.5897323 V 0.87693484 H 7.2611576 V 3.4207317 C 6.943183,3.2864757 6.5545475,3.3500706 6.2860355,3.6150494 L 3.3253385,6.5757465 V 7.3883484 M 4.0319487,6.8689898 6.2012422,4.7032293 6.9184517,5.4239717 4.7526912,7.5897323 H 4.0319487 V 6.8689898 M 7.0456415,4.1096767 c -0.00706,-0.00706 -0.017665,-0.017665 -0.028265,-0.021198 -0.067128,-0.04593 -0.1589873,-0.042397 -0.2190491,0.014132 l -0.00706,0.00706 -0.3462428,0.3462424 0.7207425,0.7207424 0.3462391,-0.3462391 c 0.070661,-0.067128 0.070661,-0.1837186 0,-0.2543796 z"
       id="path2142"
       style="fill:#e6e6e6;fill-opacity:1;stroke-width:0.353305" />
  </g>
  <style
     type="text/css"
     id="style884">
	.st0{fill:#FFFFFF;}
	.st1{fill:#69B53F;}
	.st2{fill:#F8F8F8;}
</style>
</svg>
