<?xml version="1.0" encoding="UTF-8" standalone="no"?>
<!-- Created with Inkscape (http://www.inkscape.org/) -->

<svg
   width="32"
   height="32"
   viewBox="0 0 8.4666665 8.4666669"
   version="1.1"
   id="svg5"
   inkscape:version="1.1.2 (0a00cf5339, 2022-02-04)"
   sodipodi:docname="unset.svg"
   inkscape:export-filename="/home/tgy-tutorials/Scrivania/unset.png"
   inkscape:export-xdpi="96"
   inkscape:export-ydpi="96"
   xmlns:inkscape="http://www.inkscape.org/namespaces/inkscape"
   xmlns:sodipodi="http://sodipodi.sourceforge.net/DTD/sodipodi-0.dtd"
   xmlns="http://www.w3.org/2000/svg"
   xmlns:svg="http://www.w3.org/2000/svg">
  <sodipodi:namedview
     id="namedview7"
     pagecolor="#8c8c8c"
     bordercolor="#666666"
     borderopacity="1.0"
     inkscape:pageshadow="2"
     inkscape:pageopacity="0"
     inkscape:pagecheckerboard="0"
     inkscape:document-units="px"
     showgrid="false"
     units="px"
     inkscape:showpageshadow="false"
     inkscape:zoom="7.8286645"
     inkscape:cx="15.966963"
     inkscape:cy="16.030831"
     inkscape:window-width="1920"
     inkscape:window-height="996"
     inkscape:window-x="0"
     inkscape:window-y="28"
     inkscape:window-maximized="1"
     inkscape:current-layer="layer1" />
  <defs
     id="defs2" />
  <g
     inkscape:label="Livello 1"
     inkscape:groupmode="layer"
     id="layer1">
    <path
       d="M 6.9911765,1.7512751 H 2.8544122 c -0.1902912,0 -0.3392147,0.096524 -0.4384971,0.2426901 L 0.9239222,4.2333336 2.4159151,6.4699442 C 2.5151971,6.6161097 2.664121,6.7153921 2.8544122,6.7153921 H 6.9911765 A 0.55156856,0.55156856 0 0 0 7.542745,6.1638236 V 2.3028437 A 0.55156856,0.55156856 0 0 0 6.9911765,1.7512751 M 6.1638236,5.2233992 5.7749678,5.612255 4.7849022,4.6221894 3.7948366,5.612255 3.4059807,5.2233992 4.3960463,4.2333336 3.4059807,3.243268 3.7948366,2.8544122 4.7849022,3.8444778 5.7749678,2.8544122 6.1638236,3.243268 5.173758,4.2333336"
       id="path967"
       style="fill:#e6e6e6;fill-opacity:1;stroke-width:0.275784" />
  </g>
  <style
     type="text/css"
     id="style884">
	.st0{fill:#FFFFFF;}
	.st1{fill:#69B53F;}
	.st2{fill:#F8F8F8;}
</style>
</svg>
